Folder;Sample name;Type;Follicle Count;GEM Batch;cDNA Batch;Lib Prep Batch;Time;Directory
mpg_L29230-1_vivo-0hr-rep2;vivo-0hr-rep2;In vivo;5;GEM-2;CDNA-1;LP-1;0;/directory_to_cell_ranger_output/
mpg_L29235-1_vivo-0hr-rep3;vivo-0hr-rep3;In vivo;3;GEM-3;CDNA-2;LP-1;0;/directory_to_cell_ranger_output/
mpg_L29231-1_vivo-3hr-rep2;vivo-3hr-rep2;In vivo;4;GEM-2;CDNA-1;LP-1;3;/directory_to_cell_ranger_output/
mpg_L29236-1_vivo-3hr-rep3;vivo-3hr-rep3;In vivo;3;GEM-4;CDNA-2;LP-1;3;/directory_to_cell_ranger_output/
mpg_L29227-1_vivo-6hr-rep1;vivo-6hr-rep1;In vivo;5;GEM-1;CDNA-1;LP-1;6;/directory_to_cell_ranger_output/
mpg_L29232-1_vivo-6hr-rep2;vivo-6hr-rep2;In vivo;4;GEM-2;CDNA-1;LP-1;6;/directory_to_cell_ranger_output/
mpg_L29284-1_vivo-6hr-rep3;vivo-6hr-rep3;In vivo;3;GEM-3;CDNA-2;LP-3;6;/directory_to_cell_ranger_output/
mpg_L29228-1_vivo-9hr-rep1;vivo-9hr-rep1;In vivo;5;GEM-1;CDNA-1;LP-1;9;/directory_to_cell_ranger_output/
mpg_L29282-1_vivo-9hr-rep2;vivo-9hr-rep2;In vivo;4;GEM-2;CDNA-2;LP-3;9;/directory_to_cell_ranger_output/
mpg_L29238-1_vivo-9hr-rep3;vivo-9hr-rep3;In vivo;3;GEM-3;CDNA-2;LP-1;9;/directory_to_cell_ranger_output/
mpg_L29229-1_vivo-12hr-rep1;vivo-12hr-rep1;In vivo;3;GEM-1;CDNA-1;LP-1;12;/directory_to_cell_ranger_output/
mpg_L29283-1_vivo-12hr-rep2;vivo-12hr-rep2;In vivo;5;GEM-2;CDNA-2;LP-3;12;/directory_to_cell_ranger_output/
mpg_L29239-1_vivo-12hr-rep3;vivo-12hr-rep3;In vivo;4;GEM-3;CDNA-2;LP-1;12;/directory_to_cell_ranger_output/
mpg_L29240-1_vitro-0hr-rep1;vitro-0hr-rep1;In vitro;5;GEM-5;CDNA-3;LP-1;0;/directory_to_cell_ranger_output/
mpg_L29245-1_vitro-0hr-rep2;vitro-0hr-rep2;In vitro;5;GEM-6;CDNA-4;LP-2;0;/directory_to_cell_ranger_output/
mpg_L29250-1_vitro-0hr-rep3;vitro-0hr-rep3;In vitro;5;GEM-7;CDNA-4;LP-2;0;/directory_to_cell_ranger_output/
mpg_L29241-1_vitro-3hr-rep1;vitro-3hr-rep1;In vitro;5;GEM-5;CDNA-3;LP-2;3;/directory_to_cell_ranger_output/
mpg_L29246-1_vitro-3hr-rep2;vitro-3hr-rep2;In vitro;5;GEM-6;CDNA-4;LP-2;3;/directory_to_cell_ranger_output/
mpg_L29285-1_vitro-3hr-rep3;vitro-3hr-rep3;In vitro;5;GEM-7;CDNA-4;LP-3;3;/directory_to_cell_ranger_output/
mpg_L29242-1_vitro-6hr-rep1;vitro-6hr-rep1;In vitro;5;GEM-5;CDNA-3;LP-2;6;/directory_to_cell_ranger_output/
mpg_L29247-1_vitro-6hr-rep2;vitro-6hr-rep2;In vitro;5;GEM-6;CDNA-4;LP-2;6;/directory_to_cell_ranger_output/
mpg_L29286-1_vitro-6hr-rep3;vitro-6hr-rep3;In vitro;5;GEM-7;CDNA-4;LP-3;6;/directory_to_cell_ranger_output/
mpg_L29243-1_vitro-9hr-rep1;vitro-9hr-rep1;In vitro;5;GEM-6;CDNA-4;LP-2;9;/directory_to_cell_ranger_output/
mpg_L29248-1_vitro-9hr-rep2;vitro-9hr-rep2;In vitro;5;GEM-6;CDNA-4;LP-2;9;/directory_to_cell_ranger_output/
mpg_L29253-1_vitro-9hr-rep3;vitro-9hr-rep3;In vitro;5;GEM-7;CDNA-4;LP-2;9;/directory_to_cell_ranger_output/
mpg_L29244-1_vitro-12hr-rep1;vitro-12hr-rep1;In vitro;5;GEM-5;CDNA-3;LP-2;12;/directory_to_cell_ranger_output/
mpg_L29249-1_vitro-12hr-rep2;vitro-12hr-rep2;In vitro;5;GEM-6;CDNA-4;LP-2;12;/directory_to_cell_ranger_output/
mpg_L29254-1_vitro-12hr-rep3;vitro-12hr-rep3;In vitro;5;GEM-8;CDNA-4;LP-2;12;/directory_to_cell_ranger_output/
